…
#### 3. 현황 파악하기

- yyyymmdd에 따른 데이터 수 파악하기 (내림차순 정렬)
- count(data, 컬럼이름) 함수 이용

```r
count(row_data2,yyyymmdd) 
>
# A tibble: 122 x 2
   yyyymmdd       n
   <chr>      <int>
 1 2017-09-01     2
 2 2017-09-02     2
 3 2017-09-03     2
 4 2017-09-04     2
 5 2017-09-05     2
 6 2017-09-06     2
 7 2017-09-07     2
 8 2017-09-08     2
 9 2017-09-09     2
10 2017-09-10     2
# ... with 112 more rows
```

- 날짜마다 데이터가  몇 개 있는지 보았다.

```r
row_data2 %>%
  group_by(yyyymmdd)%>%
  summarise(n=n())
>
`summarise()` ungrouping output (override with `.groups` argument)
# A tibble: 122 x 2
   yyyymmdd       n
   <chr>      <int>
 1 2017-09-01     2
 2 2017-09-02     2
 3 2017-09-03     2
 4 2017-09-04     2
 5 2017-09-05     2
 6 2017-09-06     2
 7 2017-09-07     2
 8 2017-09-08     2
 9 2017-09-09     2
10 2017-09-10     2
# ... with 112 more rows
```
…
